simulation/qsim/calculadora.msim.vcd
$comment
	File created using the following command:
		vcd file calculadora.msim.vcd -direction
$end
$date
	Mon Nov 18 11:35:44 2024
$end
$version
	ModelSim Version 10.1d
$end
$timescale
	1ps
$end
$scope module calculadora_main_vlg_vec_tst $end
$var reg 6 ! a [5:0] $end
$var reg 6 " b [5:0] $end
$var reg 1 # clk $end
$var reg 1 $ sub $end
$var wire 1 % overflow $end
$var wire 1 & sum [5] $end
$var wire 1 ' sum [4] $end
$var wire 1 ( sum [3] $end
$var wire 1 ) sum [2] $end
$var wire 1 * sum [1] $end
$var wire 1 + sum [0] $end
$var wire 1 , sampler $end
$scope module i1 $end
$var wire 1 - gnd $end
$var wire 1 . vcc $end
$var wire 1 / unknown $end
$var tri1 1 0 devclrn $end
$var tri1 1 1 devpor $end
$var tri1 1 2 devoe $end
$var wire 1 3 calc|f_add_3|co~0_combout $end
$var wire 1 4 calc|f_add_0|co~0_combout $end
$var wire 1 5 calc|f_add_5|s~0_combout $end
$var wire 1 6 clk~combout $end
$var wire 1 7 clk~clkctrl_outclk $end
$var wire 1 8 calc|f_add_0|s~0_combout $end
$var wire 1 9 sub~combout $end
$var wire 1 : calc|f_add_1|s~2_combout $end
$var wire 1 ; calc|f_add_1|co~0_combout $end
$var wire 1 < calc|f_add_2|co~0_combout $end
$var wire 1 = calc|f_add_2|s~1_combout $end
$var wire 1 > calc|f_add_2|s~0_combout $end
$var wire 1 ? calc|f_add_2|co~1_combout $end
$var wire 1 @ calc|f_add_3|s~0_combout $end
$var wire 1 A calc|f_add_3|co~1_combout $end
$var wire 1 B calc|f_add_4|s~2_combout $end
$var wire 1 C calc|f_add_5|s~1_combout $end
$var wire 1 D calc|f_add_4|co~0_combout $end
$var wire 1 E calc|f_add_5|co~0_combout $end
$var wire 1 F reg|reg [5] $end
$var wire 1 G reg|reg [4] $end
$var wire 1 H reg|reg [3] $end
$var wire 1 I reg|reg [2] $end
$var wire 1 J reg|reg [1] $end
$var wire 1 K reg|reg [0] $end
$var wire 1 L b~combout [5] $end
$var wire 1 M b~combout [4] $end
$var wire 1 N b~combout [3] $end
$var wire 1 O b~combout [2] $end
$var wire 1 P b~combout [1] $end
$var wire 1 Q b~combout [0] $end
$var wire 1 R a~combout [5] $end
$var wire 1 S a~combout [4] $end
$var wire 1 T a~combout [3] $end
$var wire 1 U a~combout [2] $end
$var wire 1 V a~combout [1] $end
$var wire 1 W a~combout [0] $end
$upscope $end
$upscope $end
$enddefinitions $end
#0
$dumpvars
b0 !
b111111 "
0#
0$
0%
0+
0*
0)
0(
0'
0&
x,
0-
1.
x/
10
11
12
13
04
05
06
07
18
09
1:
1;
1<
1=
0>
0?
1@
0A
1B
1C
0D
0E
0K
0J
0I
0H
0G
0F
1Q
1P
1O
1N
1M
1L
0W
0V
0U
0T
0S
0R
$end
#20000
1#
16
17
0,
1F
1G
1H
1I
1J
1K
1&
1'
1(
1)
1*
1+
#30000
0#
06
07
1,
#60000
1$
19
0,
0B
0<
0;
0:
15
03
0=
0C
0@
#90000
1#
16
17
1,
0F
0G
0H
0I
0J
0&
0'
0(
0)
0*
#100000
0#
06
07
0,
#130000
b100000 !
b110000 !
b111000 !
b111100 !
b111110 !
b111111 !
b11111 "
b1111 "
b111 "
b11 "
b1 "
b0 "
0$
0Q
0P
0O
0N
0M
0L
1W
1V
1U
1T
1S
1R
09
1,
1:
1<
1B
05
1@
1=
1C
#150000
1#
16
17
0,
1F
1G
1H
1I
1J
1&
1'
1(
1)
1*
#160000
0#
06
07
1,
#200000
1$
19
0,
1E
1D
0B
1>
0<
1;
0:
14
13
1A
1:
1%
1B
#220000
1#
16
17
1,
#230000
0#
06
07
0,
#260000
b101111 !
b101011 !
b101010 !
b10000 "
b10100 "
b10101 "
0$
1Q
1O
1M
0W
0U
0S
09
1,
04
0>
1<
0B
15
0;
0:
03
1:
0A
0C
0D
1B
05
0E
1C
0%
#280000
1#
16
17
0,
#290000
0#
06
07
1,
#340000
1$
19
0,
1E
0B
0<
1;
0:
15
13
0C
1A
0@
1%
1B
#360000
1#
16
17
1,
0F
0H
0J
0&
0(
0*
#370000
0#
06
07
0,
#410000
b1010 !
b10 !
b0 !
b101 "
b1 "
b0 "
0$
0Q
0O
0M
0V
0T
0R
09
1,
08
05
0=
0A
1@
0E
1C
0;
03
0C
0B
0@
0%
#430000
b1000 !
b1010 !
b100 "
b101 "
1Q
1O
1V
1T
0,
18
1<
1:
1@
1=
#440000
1#
16
17
1,
0G
1H
1J
0'
1(
1*
#450000
0#
06
07
0,
#480000
1$
19
1,
1B
0<
1;
0:
15
13
1C
1A
0@
1D
0B
05
1E
0C
1%
#500000
1#
16
17
0,
0H
0J
0(
0*
#510000
0#
06
07
1,
#550000
b111 "
b1110 !
b1111 !
0$
1W
1U
1P
09
0,
08
14
1>
0E
0D
1B
03
1:
0%
#570000
1#
16
17
1,
1G
1J
0K
1'
1*
0+
#580000
0#
06
07
0,
#610000
1$
19
1,
1D
0B
0>
1<
0;
0:
13
1E
1?
0=
1@
1%
#630000
1#
16
17
0,
0G
1H
0I
0J
0'
1(
0)
0*
#640000
0#
06
07
1,
#660000
b1111 "
b1011 !
b1010 !
0$
0W
0U
1N
09
0,
18
04
0E
0D
1B
1;
1:
0:
0%
#700000
1#
16
17
1,
1G
1K
1'
1+
#710000
0#
06
07
0,
#760000
b101111 "
b101011 "
b101001 "
b100001 "
b1011 !
1W
0P
0O
0N
1L
1,
08
14
0;
1:
0<
03
1C
0?
1=
0:
0@
0A
1@
0B
#820000
1#
16
17
0,
1F
0G
1I
0K
1&
0'
1)
0+
#830000
0#
06
07
1,
#880000
1$
19
0,
1B
1<
1;
1:
15
13
1?
0=
0C
1A
0@
1@
1D
0B
05
1C
#920000
1#
16
17
1,
0I
1J
0)
1*
#930000
0#
06
07
0,
#990000
b11 !
b1 !
b100000 "
b0 "
b0 !
0$
0Q
0L
0W
0V
0T
09
1,
04
0C
0@
0D
1B
0<
0;
03
0?
0:
0A
1@
0@
0B
